[
  {
    "model": "app.host",
    "pk": 1,
    "fields": {
      "created": "2020-03-29T16:41:27.856Z",
      "modified": "2020-03-29T22:52:57.672Z",
      "address": "atom-locker-api1.f44"
    }
  },
  {
    "model": "app.host",
    "pk": 2,
    "fields": {
      "created": "2020-03-29T16:41:35.831Z",
      "modified": "2020-03-29T22:52:50.149Z",
      "address": "atom-locker-api2.f44"
    }
  },
  {
    "model": "app.host",
    "pk": 3,
    "fields": {
      "created": "2020-04-07T12:58:43.940Z",
      "modified": "2020-04-07T12:58:43.940Z",
      "address": "aukcje-szkod.pl"
    }
  }
]
