[
  {
    "model": "app.systemvariable",
    "pk": 1,
    "fields": {
      "created": "2020-03-30T11:40:29.855Z",
      "modified": "2020-03-30T11:40:29.855Z",
      "project": 1,
      "stage": 1,
      "name": "APPLICATION",
      "value": "atom-locker-api"
    }
  },
  {
    "model": "app.systemvariable",
    "pk": 2,
    "fields": {
      "created": "2020-03-30T11:42:24.055Z",
      "modified": "2020-03-30T11:42:24.055Z",
      "project": 1,
      "stage": 1,
      "name": "DEPLOY_TO",
      "value": "/data/www/atom_locker_api"
    }
  },
  {
    "model": "app.systemvariable",
    "pk": 3,
    "fields": {
      "created": "2020-03-30T11:43:57.121Z",
      "modified": "2020-03-30T11:43:57.121Z",
      "project": 1,
      "stage": 1,
      "name": "REPO_URL",
      "value": "https://siciarek:FJDRq9WHr%o2@bitbucket.org/siciarek/atom-locker-api.git"
    }
  },
  {
    "model": "app.systemvariable",
    "pk": 4,
    "fields": {
      "created": "2020-03-30T11:44:51.587Z",
      "modified": "2020-03-30T11:44:51.587Z",
      "project": 1,
      "stage": 1,
      "name": "REMOTE_USER",
      "value": "www"
    }
  },
  {
    "model": "app.systemvariable",
    "pk": 5,
    "fields": {
      "created": "2020-03-30T11:45:28.703Z",
      "modified": "2020-03-30T11:45:28.703Z",
      "project": 1,
      "stage": 1,
      "name": "BRANCH",
      "value": "master"
    }
  },
  {
    "model": "app.systemvariable",
    "pk": 6,
    "fields": {
      "created": "2020-04-07T13:03:47.014Z",
      "modified": "2020-04-07T13:03:47.014Z",
      "project": 2,
      "stage": 2,
      "name": "APPLICATION",
      "value": "aukcje-szkod"
    }
  },
  {
    "model": "app.systemvariable",
    "pk": 7,
    "fields": {
      "created": "2020-04-07T13:04:18.036Z",
      "modified": "2020-04-07T13:04:18.036Z",
      "project": 2,
      "stage": 2,
      "name": "BRANCH",
      "value": "master"
    }
  },
  {
    "model": "app.systemvariable",
    "pk": 8,
    "fields": {
      "created": "2020-04-07T13:05:14.447Z",
      "modified": "2020-04-07T13:05:14.447Z",
      "project": 2,
      "stage": 2,
      "name": "DEPLOY_TO",
      "value": "/home/jsiciarek/applications/aukcje-szkod.pl"
    }
  },
  {
    "model": "app.systemvariable",
    "pk": 9,
    "fields": {
      "created": "2020-04-07T13:06:11.071Z",
      "modified": "2020-04-07T13:06:11.071Z",
      "project": 2,
      "stage": 2,
      "name": "REMOTE_USER",
      "value": "jsiciarek"
    }
  },
  {
    "model": "app.systemvariable",
    "pk": 10,
    "fields": {
      "created": "2020-04-07T13:07:04.379Z",
      "modified": "2020-04-07T13:07:04.379Z",
      "project": 2,
      "stage": 2,
      "name": "REPO_URL",
      "value": "git@github.com:densar/vlinss-aukcja.git"
    }
  }
]
